24

2
-7
3
6
-3
-5
-6
8
4
5
-4

1
1
-1
-8
7
8
-5
5
-7
3
2

7
-7
-10
4
-7
8
2
-4
8
4

8
4
4
1
8
2
2
6
3
-1
5
-10
8

-9
-2
-3
-10
-10
1
-9
7
-8
6
-3
3

-10
1
-8
5
1
-9
-1
8
6
5

-4
-3

5
4
-3

6
4
3
2

3
-5
8
-7
7
-9
-1
-2

-7
8
2

-3
-5
3
-8
3
8
3

-8
-5

-3
3
5
-10
-3
8
-10
-3
3

-8
-6
-5
-6

8
-5
7
8
6
-10
4
-2
-6
1

-9
4
-10
-4
4
-6
8
8
6
2
-4

3
5
-5
7
8
7
-6
-7

6
-9
-1
7

5
-10
-10
2
-8
6
-3
-6
-4
8
8

1
1
2
2
-8
8
-9
7
-3
2
-9
4
8
-9

6
-10
7
-4
-5
4
-4
2
7
-3

-4
-9
-1
-7
8
1
-2
-10
-4

-9
4
-6
8
2
-4
-2
3
3
7
3
