25

-5
-1
1
-2
6
-9
-2

-2
10
-3
-10
13
-4
3

-10
-8
-5
10
15
9

-10
-10
5
13
7
11

-8
-1
-5
12
15

14
14
-8
-6
10
4
-6
-4
13
-2
-1
7
6
4

-10
6
-6
-4
8
-5
-8

-5
-9
12
3
-9
3

6
-10
7
-4
2
7

-2
14
-1
8
3

-7
2
7
-4
8
-7
-6
7
-3
4
-4
-8

10
-1
8
10
12
11

-5
9
-9
-4
-10
8

-1
4
10
-1
-2
6
5
6
7
2

-3
-10
-1
1
3
13
-9
1
2
5
14
-8
12
8

1
9
3
15
-3
-6
11
-7
-2
-9
-8

-8
13
7
4
9

-4
-1
8
2
13
14
-1
-6
-1
-1
6
-1
2

7
-10
-3
-6
1
-2
9
7
-8
-3

-6
-6
-9
1
-5
11
-1
-2

15
15
15
-10
-2
10

8
-8
5
11
15
2

13
-6
-9
10
-9
1
12
-2
7
11

5
1
-4
6
-8
-2
13

2
12
2
-8
15
14
-1
5
-7
