27

-9
9
-9
-10
4
-8
-9
-3
-1

-8
10
-5
-9
7
-2

2
12
3
3
-5
4
-6
3
8
-5
5
12
4
-10
3

-7
6
12
-5
-1
2

-5
-6
-4
-1
-7
-8
3
-10

8
8
-1
-2
-5
-5

-3
-3
2
-1
12
-6
-4
-3
-1
4
-7
10

2
7

2
-1
11
-1
12
-1
-8

11
-3
-4
10
7
-4
11

-7
-2
1
8
-5
5
-1
-3
-4
-7
2

2
5
1
-3
-7
-10
10
12

-10
-10
6
-3
9
-4
-7
-2
-7
11
4
-2
12

1
3
-4
5
-3
6
12

-4
-6
9
8
5
3
-4
-4
-1
3
-7
5
3
10
-2

4
-2
12
8
-4

-2
5
10
-8
-9
10
-3
12
11
2
-2
11

9
-2
10
-1
4
7
3
-10
4
-4
10
3
6

9
6
-8
-3
-6
4
3
-9
6
7

-6
8
12
-8
-4
1
1
-7
-6
-8
-5
-9
-6
5

-8
10
-1
2
9
1
5
-5
-2

-9
9
7
-6

-2
11
-6

3
-6
4
-3
5
4
7
-3
5
12
-5
11
-2
-4
7

-7
-3
10
2
2
12
12
-1
4
1
-3
6

9
4
-8
9

-1
12
-6
11
-8
9
11
