30

7
-1
-3
-1
13

10
10
5
-2
3
-5
7

8
8
13
6
3
-3
-1
-1

-6
15
-9
8
-2
7

-3
7
-3
7
-3
7
-3
7
-3
7

-4
4
2
1
-3
-1

-2
15
5

-3
4
-6
10
12
11

12
-1
8
8
-1
8
8

-5
7
-10
4
10

-5
7
-10
4
10

-9
7
-10
4
10

-10
14
2
-1

-8
-6
11
13
-2
-1
8

-7

13
-8
-2
4
2

-2
-4
-3
-9
9

9
-6

-6
-9
-8
13
-7
-4

8
6

-8
3
1
12

-10
-1

-4
2
-8
-5
-2

14
7
15
9
-9
3
-4

-4
1
-1
6
11
-1
4

14
-7
1
-2
-8
-4

-3
-9
-7
6
-2
-10

5
12
-6
15
12
-1
-2
5
12
-1
-2
5

13
-2
2
9
10
3
-4

11
-5
-9
-5
14
-1
5
2
1
